…
# Sum up total games and medals for countries with multiple designations
small_merge3 <- small_merge2 %>% 
  group_by(NOC) %>% 
  summarize(Winter_Games=sum(Winter_Games), Medals=sum(Medals), Golds=sum(Golds), Silver=sum(Silvers), Bronze=sum(Bronzes))

gdp <- gdp %>% 
  rename(NOC = Code)

Combined <- dplyr::inner_join(small_merge3, gdp, by="NOC") 
print(Combined)
```

```
## # A tibble: 106 × 9
##    NOC   Winter_Games Medals Golds Silver Bronze Country              Population
##    <chr>        <int>  <dbl> <dbl>  <dbl>  <dbl> <chr>                     <int>
##  1 AHO              2      0     0      0      0 Netherlands Antille…         NA
##  2 ALB              3      0     0      0      0 Albania                 2889167
##  3 ALG              3      0     0      0      0 Algeria                39666519
##  4 AND             11      0     0      0      0 Andorra                   70473
##  5 ARG             18      0     0      0      0 Argentina              43416755
##  6 ARM              6      0     0      0      0 Armenia                 3017712
##  7 ASA              1      0     0      0      0 American Samoa*           55538
##  8 AUS             19     13     6      3      4 Australia              23781169
##  9 AUT             22    218    59     78     81 Austria                 8611088
## 10 AZE              5      0     0      0      0 Azerbaijan              9651349
## # … with 96 more rows, and 1 more variable: GDP.per.Capita <dbl>
```

  _For countries with different designations in the past, I added up all the games and medals from those designations since I want align the NOCs with current set of countries but also take into account their past achievements under other designations. For example, I added medals and games from United Team and Soviet Union to those from Russia. Same rule applies to United Team of Germany and East Germany. Those governments of the same country are not strictly administratively identical, but I append their medal and game counts for the purpose of an up-to-date summary._
  
b) Calculate a summary of how many winter games each country competed in, and how many medals of each type the country won. Use that summary to provide a **visual comparison of medal count by country**. 


```r
# Data frame summary of how many winter games each country competed in and how many medals of total medal and each type the country won
summary_games_by_country <- Combined[,c("NOC","Winter_Games", "Medals","Golds", "Silver","Bronze")]
print(summary_games_by_country)
```

```
## # A tibble: 106 × 6
##    NOC   Winter_Games Medals Golds Silver Bronze
##    <chr>        <int>  <dbl> <dbl>  <dbl>  <dbl>
##  1 AHO              2      0     0      0      0
##  2 ALB              3      0     0      0      0
##  3 ALG              3      0     0      0      0
##  4 AND             11      0     0      0      0
##  5 ARG             18      0     0      0      0
##  6 ARM              6      0     0      0      0
##  7 ASA              1      0     0      0      0
##  8 AUS             19     13     6      3      4
##  9 AUT             22    218    59     78     81
## 10 AZE              5      0     0      0      0
## # … with 96 more rows
```
…
